Getting Started
…
Adding in AKI

Now, it’s as simple as calling whichever AKI calculation method you are interested in. For example, if you were interested in rolling-window AKI, you could add it in like this:

subset <- c('patient_id', 'inpatient', 'time', 'creatinine', 'rw')

out <- addRollingWindowAKI(dt)
out[, subset] # Subset selects the required columns
# A tibble: 1,027 x 5
# Groups:   patient_id [100]
   patient_id inpatient time                creatinine    rw
        <int> <lgl>     <dttm>                   <dbl> <int>
 1      12732 FALSE     2020-02-12 23:42:42       1.61     0
 2      12732 FALSE     2020-02-23 05:42:42       1.42     0
 3      12732 FALSE     2020-02-25 11:42:42       1.05     0
 4      12732 TRUE      2020-02-29 17:42:42       1.06     0
 5      12732 TRUE      2020-03-01 11:42:42       1.26     0
 6      19845 FALSE     2020-04-24 18:02:54       1.07     0
 7      19845 FALSE     2020-04-26 06:02:54       0.76     0
 8      19845 FALSE     2020-04-28 06:02:54       0.43     0
 9      19845 FALSE     2020-04-30 12:02:54       1.12     2
10      19845 FALSE     2020-05-04 12:02:54       0.89     2
# … with 1,017 more rows

Notice how the flagger returns the dataset exactly as that which it was presented with, with the rw column added in. We can look at what the flagger is flagging by taking a sample patient where rw > 0.

out[out$rw > 0, subset] # Apparently, patient 13624 is a good candidate to see the flagger in action
# A tibble: 325 x 5
# Groups:   patient_id [84]
   patient_id inpatient time                creatinine    rw
        <int> <lgl>     <dttm>                   <dbl> <int>
 1      19845 FALSE     2020-04-30 12:02:54       1.12     2
 2      19845 FALSE     2020-05-04 12:02:54       0.89     2
 3      13264 FALSE     2020-01-01 11:16:57       0.79     2
 4      13264 FALSE     2020-01-04 05:16:57       0.75     3
 5      13264 FALSE     2020-01-08 17:16:57       0.47     3
 6      13264 FALSE     2020-01-09 17:16:57       0.22     2
 7      13264 TRUE      2020-01-11 11:16:57       0.63     3
 8      13264 TRUE      2020-01-12 17:16:57       0.59     2
 9      13264 TRUE      2020-01-13 11:16:57       0.55     2
10      13264 TRUE      2020-01-13 23:16:57       0.5      2
# … with 315 more rows
…
If we wanted to perform both calculation methods, that can be accomplished by simply chaining the functions together:

subset <- c('patient_id', 'inpatient', 'time', 'creatinine', 'rw', 'bc') 

aki <- addRollingWindowAKI(addBackCalcAKI(dt))
aki[, subset]
# A tibble: 1,027 x 6
# Groups:   patient_id [100]
   patient_id inpatient time                creatinine    rw    bc
        <int> <lgl>     <dttm>                   <dbl> <int> <int>
 1      12732 FALSE     2020-02-12 23:42:42       1.61     0     0
 2      12732 FALSE     2020-02-23 05:42:42       1.42     0     0
 3      12732 FALSE     2020-02-25 11:42:42       1.05     0     0
 4      12732 TRUE      2020-02-29 17:42:42       1.06     0     0
 5      12732 TRUE      2020-03-01 11:42:42       1.26     0     0
 6      19845 FALSE     2020-04-24 18:02:54       1.07     0     0
 7      19845 FALSE     2020-04-26 06:02:54       0.76     0     0
 8      19845 FALSE     2020-04-28 06:02:54       0.43     0     0
 9      19845 FALSE     2020-04-30 12:02:54       1.12     2     0
10      19845 FALSE     2020-05-04 12:02:54       0.89     2     0
# … with 1,017 more rows

Adding in padding

The length of the rolling window can be modified. Often, it is the case you would like to add a 4-hour padding to the rolling windows. This can be done by modifying the window parameters in the addRollingWindowAKI() function.

window1 <- as.difftime(48, units='hours')
window2 <- as.difftime(172, units='hours')
aki <- addRollingWindowAKI(addBackCalcAKI(dt), window1=window1, window2=window2)
aki[, subset]
# A tibble: 1,027 x 6
# Groups:   patient_id [100]
   patient_id inpatient time                creatinine    rw    bc
        <int> <lgl>     <dttm>                   <dbl> <int> <int>
 1      12732 FALSE     2020-02-12 23:42:42       1.61     0     0
 2      12732 FALSE     2020-02-23 05:42:42       1.42     0     0
 3      12732 FALSE     2020-02-25 11:42:42       1.05     0     0
 4      12732 TRUE      2020-02-29 17:42:42       1.06     0     0
 5      12732 TRUE      2020-03-01 11:42:42       1.26     0     0
 6      19845 FALSE     2020-04-24 18:02:54       1.07     0     0
 7      19845 FALSE     2020-04-26 06:02:54       0.76     0     0
 8      19845 FALSE     2020-04-28 06:02:54       0.43     0     0
 9      19845 FALSE     2020-04-30 12:02:54       1.12     2     0
10      19845 FALSE     2020-05-04 12:02:54       0.89     2     0
# … with 1,017 more rows
